<?xml version="1.0" encoding="utf-8"?>
<!-- Generator: Adobe Illustrator 16.0.0, SVG Export Plug-In . SVG Version: 6.00 Build 0)  -->
<!DOCTYPE svg PUBLIC "-//W3C//DTD SVG 1.1//EN" "http://www.w3.org/Graphics/SVG/1.1/DTD/svg11.dtd">
<svg version="1.1" id="Isolationsmodus" xmlns="http://www.w3.org/2000/svg" xmlns:xlink="http://www.w3.org/1999/xlink" x="0px"
	 y="0px" width="77px" height="119.4px" viewBox="0 0 77 119.4" style="enable-background:new 0 0 77 119.4;" xml:space="preserve">
<style type="text/css">
<![CDATA[
	.st0{clip-path:url(#SVGID_2_);}
]]>
</style>
<g>
	<g>
		<defs>
			<rect id="SVGID_1_" width="77" height="119.4"/>
		</defs>
		<clipPath id="SVGID_2_">
			<use xlink:href="#SVGID_1_"  style="overflow:visible;"/>
		</clipPath>
		<path class="st0" d="M24.3,75.1c-0.8-4.6-0.8-10.4-0.7-21c0-2.3,0-4.9,0-7.8l-0.1-8.5l8.1,2.3c0.2,0,1.5,0.3,3.3,0.3
			c5.7,0,10-2.3,12.8-7.1l2.2-3.6H34.3c4.2-3.2,6.9-7.9,6.9-13.4C41.2,7.3,33.9,0,25,0C16,0,8.7,7.3,8.7,16.3
			c0,5.5,2.7,10.1,6.9,13.3H4.8v-0.1C2.4,29.6,0,32,0,34.7v40.2C0,77.7,2.4,80,5.1,80h0.2c2.1,0,3.9-1.4,4.7-3.2v34.8
			c0,4.1,3.4,7.5,7.5,7.5h0.2c4.1,0,7.4-3.3,7.4-7.4c0,4.1,3.3,7.4,7.4,7.4h0.2c4.1,0,7.2-3.4,7.2-7.5V94.8
			c-3.2-2.4-6.6-5.1-8.8-7.3C27.6,84.1,25.4,80.9,24.3,75.1L24.3,75.1z M24.3,75.1"/>
		<path class="st0" d="M76.6,46.3c0,0-2,0.5-4.9,0.5c-5.1,0-13.2-1.6-18.4-10.3C48.1,45.2,40.1,46.8,35,46.8c-2.9,0-4.9-0.5-4.9-0.5
			c0,27.3-0.7,30.4,5.6,36.6c5.1,5,17.7,13.4,17.7,13.4S65.9,88,71.1,82.9C77.4,76.7,76.6,73.6,76.6,46.3L76.6,46.3z M69,72.2
			c-0.4,2.5-1.2,3.8-3.3,5.9c-2.5,2.5-7.8,6.3-10.7,8.3l-1.7,1.2l-1.7-1.2c-2.9-2-8.1-5.8-10.7-8.3c-2.1-2.1-2.9-3.4-3.3-5.9
			c-0.5-2.9-0.5-7.5-0.5-15.1l0-3.6l2.9-0.1c4.4-0.2,8.2-1.7,11.3-4.4l2-1.8l2,1.8c3.1,2.7,6.9,4.2,11.3,4.4l2.9,0.1l0,3.6
			C69.5,64.7,69.5,69.3,69,72.2L69,72.2z M69,72.2"/>
	</g>
</g>
</svg>
