<?xml version="1.0" encoding="iso-8859-1"?>
<!-- Generator: Adobe Illustrator 16.0.0, SVG Export Plug-In . SVG Version: 6.00 Build 0)  -->
<!DOCTYPE svg PUBLIC "-//W3C//DTD SVG 1.1//EN" "http://www.w3.org/Graphics/SVG/1.1/DTD/svg11.dtd">
<svg version="1.1" id="Ebene_2" xmlns="http://www.w3.org/2000/svg" xmlns:xlink="http://www.w3.org/1999/xlink" x="0px" y="0px"
	 width="95.682px" height="110.136px" viewBox="0 0 95.682 110.136" style="enable-background:new 0 0 95.682 110.136;"
	 xml:space="preserve">
<path style="fill-rule:evenodd;clip-rule:evenodd;fill:#FFFFFF;" d="M0.186,41.369c-0.418-9.055,0-18.569,0-27.854
	c1.586-0.167,12.593-1.146,13.873-1.354c2.368-0.383,4.715-0.827,7.052-1.375c2.24-0.526,4.444-1.148,6.634-1.849
	c3.234-1.035,6.392-2.249,9.492-3.64C40.783,3.705,44.419,1.855,47.831,0c0.204,0,5.826,2.941,8.588,4.286
	c2.258,1.1,6.981,3.102,8.496,3.819c-2.875,2.67-6.272,5.406-9.555,7.555c-2.533,1.657-5.135,3.183-7.811,4.586
	c-2.832,1.487-5.753,2.779-8.717,3.986c-2.347,0.955-4.752,1.734-7.146,2.55c-1.243,0.424-2.534,0.708-3.804,1.048
	c-2.023,0.545-4.065,1.009-6.126,1.387c-0.941,0.171-2.604,0.584-3.55,0.727c0,0.438-0.067,7.93,0.125,11.618
	c0.081,1.548,0.19,3.128,0.417,4.679c0.267,1.822,0.497,3.66,0.928,5.446c0.794,3.291,1.683,6.554,2.918,9.726
	c1.772,4.549,4.083,8.793,6.946,12.724c2.398,3.293,5.085,6.34,8.177,9.025c1.805,1.567,5.757,4.65,6.262,5.155
	c-2.551,1.653-5.391,3.055-7.866,4.179c-4.94,2.412-9.542,3.779-10.427,4.09c-2.046-1.608-5.775-5.504-8.153-8.361
	c-2.509-3.015-4.671-6.27-6.716-9.607c-1.49-2.433-2.674-5.017-3.834-7.619c-0.981-2.2-1.856-4.445-2.595-6.729
	c-0.62-1.92-2.453-9.225-2.762-10.926C1.327,51.708,0.351,44.378,0.186,41.369z"/>
<path style="fill-rule:evenodd;clip-rule:evenodd;fill:#FFFFFF;" d="M94.721,50.445c-0.335,2.606-0.873,5.207-1.535,7.775
	c-0.5,1.937-1.007,3.871-1.625,5.769c-0.845,2.597-1.827,5.144-2.956,7.638c-1.017,2.246-2.123,4.443-3.352,6.575
	c-0.923,1.603-1.903,3.171-2.958,4.697c-1.28,1.854-2.597,3.681-4.041,5.407c-2.185,2.611-4.472,5.12-6.994,7.425
	c-2.045,1.87-4.145,3.667-6.359,5.322c-3.115,2.325-6.397,4.396-9.867,6.176c-2.013,1.032-4.84,2.131-7.205,2.907
	c-3.321-1.148-6.59-2.593-9.389-4.191c-3.869-2.159-8.599-5.751-9.111-6.237c0.5-0.245,3.124-1.242,4.474-1.744
	c2.401-0.893,4.712-1.984,7.018-3.095c2.404-1.156,4.736-2.448,6.992-3.86c2.039-1.275,3.997-2.683,5.914-4.146
	c4.472-3.41,8.467-7.304,11.904-11.75c1.44-1.864,2.738-3.836,3.92-5.886c0.761-1.319,1.394-2.696,2.111-4.034
	c1.271-2.37,2.03-4.937,2.899-7.465c0.667-1.94,1.938-8.448,2.204-10.467c0.637-4.855,0.703-16.535,0.703-17.317
	c-1.738-0.3-4.266-0.844-5.969-1.287c-3.077-0.8-6.171-1.532-9.195-2.542c-3.028-1.012-8.071-3.025-9.506-3.783
	c1.063-0.836,3.917-2.673,5.625-3.825c2.002-1.351,3.91-2.826,5.769-4.364c1.644-1.36,4.47-3.833,5.346-4.657
	c1.48,0.419,3.549,0.917,5.049,1.279c1.69,0.409,8.92,1.788,10.893,1.937c2.135,0.347,8.958,0.746,10.203,0.813
	c0,9.285,0,17.625,0,27.854C95.602,45.089,94.721,50.445,94.721,50.445z"/>
<g>
	<polygon style="fill-rule:evenodd;clip-rule:evenodd;fill:#FFFFFF;" points="47.655,27.989 47.546,27.989 42.901,61.738 
		52.699,61.738 	"/>
	<path style="fill-rule:evenodd;clip-rule:evenodd;fill:#FFFFFF;" d="M41.022,28.785c-1.415,0.614-2.905,1.193-4.324,1.611
		c-3.507,1.063-11,2.871-14.299,3.239c0,0.196,0.002,0.413,0.006,0.639c0.032,4.898,0.313,9.397,1.167,13.87
		c0.849,5.379,3.038,11.606,5.049,15.73c1.088,2.997,3.226,6.153,5.698,9.091L41.022,28.785z"/>
	<path style="fill-rule:evenodd;clip-rule:evenodd;fill:#FFFFFF;" d="M60.344,30.503c-1.959-0.609-4.281-1.517-6.396-2.398
		l7.465,45.152c1.388-1.709,2.712-3.567,3.873-5.559c4.995-8.077,7.598-19.183,8.122-34.078
		C72.742,33.583,66.254,32.549,60.344,30.503z"/>
	<path style="fill-rule:evenodd;clip-rule:evenodd;fill:#FFFFFF;" d="M53.643,67.834H42.066l-1.578,11.529
		c3.518,3.237,6.597,5.49,7.369,5.765c0.667-0.226,3.824-2.226,7.532-5.561L53.643,67.834z"/>
</g>
</svg>
